{
    "prepare_queue": {
        "installed": [],
        "uninstalled": []
    },
    "config_munge": {
        "files": {}
    },
    "installed_plugins": {
        "cordova-plugin-battery-status": {
            "PACKAGE_NAME": "com.telit.phone2cloud"
        },
        "cordova-plugin-device": {
            "PACKAGE_NAME": "com.telit.phone2cloud"
        },
        "cordova-plugin-device-orientation": {
            "PACKAGE_NAME": "com.telit.phone2cloud"
        },
        "cordova-plugin-geolocation": {
            "PACKAGE_NAME": "com.telit.phone2cloud"
        },
        "cordova-plugin-insomnia": {
            "PACKAGE_NAME": "com.telit.phone2cloud"
        },
        "cordova-plugin-splashscreen": {
            "PACKAGE_NAME": "com.telit.phone2cloud"
        },
        "org.awokenwell.proximity": {
            "PACKAGE_NAME": "com.telit.phone2cloud"
        }
    },
    "dependent_plugins": {
        "cordova-plugin-compat": {
            "PACKAGE_NAME": "com.telit.phone2cloud"
        },
        "cordova-plugin-device-motion": {
            "PACKAGE_NAME": "com.telit.phone2cloud"
        },
        "cordova-plugin-file": {
            "PACKAGE_NAME": "com.telit.phone2cloud"
        },
        "cordova-plugin-globalization": {
            "PACKAGE_NAME": "com.telit.phone2cloud"
        },
        "cordova-plugin-media": {
            "PACKAGE_NAME": "com.telit.phone2cloud"
        },
        "cordova-plugin-network-information": {
            "PACKAGE_NAME": "com.telit.phone2cloud"
        },
        "cordova-plugin-whitelist": {
            "PACKAGE_NAME": "com.telit.phone2cloud"
        }
    }
}