{
    "prepare_queue": {
        "installed": [],
        "uninstalled": []
    },
    "config_munge": {
        "files": {
            "config.xml": {
                "parents": {
                    "/*": [
                        {
                            "xml": "<feature name=\"Device\"><param name=\"browser-package\" value=\"Device\" /></feature>",
                            "count": 1
                        }
                    ]
                }
            }
        }
    },
    "installed_plugins": {
        "cordova-plugin-device": {
            "PACKAGE_NAME": "com.telitti"
        },
        "cordova-plugin-device-orientation": {
            "PACKAGE_NAME": "com.telitti"
        },
        "cordova-plugin-geolocation": {
            "PACKAGE_NAME": "com.telitti"
        },
        "cordova-plugin-splashscreen": {
            "PACKAGE_NAME": "com.telitti"
        },
        "cordova-sms-plugin": {
            "PACKAGE_NAME": "com.telitti"
        },
        "cordova-plugin-insomnia": {
            "PACKAGE_NAME": "com.telitti"
        },
        "cordova-plugin-battery-status": {
            "PACKAGE_NAME": "com.telit.phone2cloud"
        },
        "org.awokenwell.proximity": {
            "PACKAGE_NAME": "com.telit.phone2cloud"
        }
    },
    "dependent_plugins": {},
    "modules": [
        {
            "file": "plugins/cordova-plugin-device/www/device.js",
            "id": "cordova-plugin-device.device",
            "pluginId": "cordova-plugin-device",
            "clobbers": [
                "device"
            ]
        },
        {
            "file": "plugins/cordova-plugin-device/src/browser/DeviceProxy.js",
            "id": "cordova-plugin-device.DeviceProxy",
            "pluginId": "cordova-plugin-device",
            "runs": true
        },
        {
            "file": "plugins/cordova-plugin-device-orientation/www/CompassError.js",
            "id": "cordova-plugin-device-orientation.CompassError",
            "pluginId": "cordova-plugin-device-orientation",
            "clobbers": [
                "CompassError"
            ]
        },
        {
            "file": "plugins/cordova-plugin-device-orientation/www/CompassHeading.js",
            "id": "cordova-plugin-device-orientation.CompassHeading",
            "pluginId": "cordova-plugin-device-orientation",
            "clobbers": [
                "CompassHeading"
            ]
        },
        {
            "file": "plugins/cordova-plugin-device-orientation/www/compass.js",
            "id": "cordova-plugin-device-orientation.compass",
            "pluginId": "cordova-plugin-device-orientation",
            "clobbers": [
                "navigator.compass"
            ]
        },
        {
            "file": "plugins/cordova-plugin-device-orientation/src/browser/CompassProxy.js",
            "id": "cordova-plugin-device-orientation.CompassProxy",
            "pluginId": "cordova-plugin-device-orientation",
            "runs": true
        },
        {
            "file": "plugins/cordova-plugin-splashscreen/www/splashscreen.js",
            "id": "cordova-plugin-splashscreen.SplashScreen",
            "pluginId": "cordova-plugin-splashscreen",
            "clobbers": [
                "navigator.splashscreen"
            ]
        },
        {
            "file": "plugins/cordova-plugin-splashscreen/src/browser/SplashScreenProxy.js",
            "id": "cordova-plugin-splashscreen.SplashScreenProxy",
            "pluginId": "cordova-plugin-splashscreen",
            "runs": true
        },
        {
            "file": "plugins/cordova-sms-plugin/www/sms.js",
            "id": "cordova-sms-plugin.Sms",
            "pluginId": "cordova-sms-plugin",
            "clobbers": [
                "window.sms"
            ]
        },
        {
            "file": "plugins/cordova-plugin-insomnia/www/Insomnia.js",
            "id": "cordova-plugin-insomnia.Insomnia",
            "pluginId": "cordova-plugin-insomnia",
            "clobbers": [
                "window.plugins.insomnia"
            ]
        },
        {
            "file": "plugins/cordova-plugin-battery-status/www/battery.js",
            "id": "cordova-plugin-battery-status.battery",
            "pluginId": "cordova-plugin-battery-status",
            "clobbers": [
                "navigator.battery"
            ]
        },
        {
            "file": "plugins/cordova-plugin-battery-status/src/browser/BatteryProxy.js",
            "id": "cordova-plugin-battery-status.Battery",
            "pluginId": "cordova-plugin-battery-status",
            "runs": true
        },
        {
            "file": "plugins/org.awokenwell.proximity/www/proximity.js",
            "id": "org.awokenwell.proximity.proximity",
            "pluginId": "org.awokenwell.proximity",
            "clobbers": [
                "navigator.proximity"
            ]
        }
    ],
    "plugin_metadata": {
        "cordova-plugin-device": "1.1.2",
        "cordova-plugin-device-orientation": "1.0.3",
        "cordova-plugin-geolocation": "2.1.0",
        "cordova-plugin-splashscreen": "3.2.2",
        "cordova-sms-plugin": "0.1.11",
        "cordova-plugin-insomnia": "4.2.0",
        "cordova-plugin-battery-status": "1.1.2",
        "org.awokenwell.proximity": "1.1.0"
    }
}